...
----------------------------------------------------------------------
Ran 3 tests in 0.001s

OK
Name               Stmts   Miss Branch BrPart  Cover   Missing
--------------------------------------------------------------
Diplomacy.py          90     14     72      4    80%   47-56, 62->67, 68, 75-78
TestDiplomacy.py      21      0      2      1    96%   29->exit
--------------------------------------------------------------
TOTAL                111     14     74      5    82%
