............
----------------------------------------------------------------------
Ran 12 tests in 0.002s

OK
Name               Stmts   Miss Branch BrPart  Cover   Missing
--------------------------------------------------------------
Diplomacy.py          55      0     40      0   100%
TestDiplomacy.py      78      0      2      1    99%   100->exit
--------------------------------------------------------------
TOTAL                133      0     42      1    99%
